<?xml version="1.0" encoding="UTF-8" standalone="no"?>
<!DOCTYPE svg PUBLIC "-//W3C//DTD SVG 1.1//EN"
 "http://www.w3.org/Graphics/SVG/1.1/DTD/svg11.dtd">
<!-- Generated by graphviz version 2.38.0 (20140413.2041)
 -->
<!-- Title: models_diagram Pages: 1 -->
<svg width="304pt" height="225pt"
 viewBox="0.00 0.00 304.44 225.00" xmlns="http://www.w3.org/2000/svg" xmlns:xlink="http://www.w3.org/1999/xlink">
<g id="graph0" class="graph" transform="scale(1 1) rotate(0) translate(4 221)">
<title>models_diagram</title>
<polygon fill="white" stroke="none" points="-4,4 -4,-221 300.438,-221 300.438,4 -4,4"/>
<!-- _diagram_info -->
<g id="node1" class="node"><title>_diagram_info</title>
<text text-anchor="start" x="8" y="-202.6" font-family="Times,serif" font-size="13.00">Models diagram</text>
<text text-anchor="start" x="8" y="-189.6" font-family="Times,serif" font-size="13.00">Date: May 11 2015 &#45; 22:59</text>
<text text-anchor="start" x="8" y="-176.6" font-family="Times,serif" font-size="13.00">Migration version: 20150511205301</text>
<text text-anchor="start" x="8" y="-163.6" font-family="Times,serif" font-size="13.00">Generated by RailRoady 1.3.0</text>
<text text-anchor="start" x="8" y="-150.6" font-family="Times,serif" font-size="13.00">http://railroady.prestonlee.com</text>
</g>
<!-- Comment -->
<g id="node2" class="node"><title>Comment</title>
<ellipse fill="none" stroke="black" cx="251.45" cy="-18" rx="44.9768" ry="18"/>
<text text-anchor="middle" x="251.45" y="-13.8" font-family="Times,serif" font-size="14.00">Comment</text>
</g>
<!-- Event -->
<g id="node3" class="node"><title>Event</title>
<ellipse fill="none" stroke="black" cx="251.45" cy="-90" rx="30.9706" ry="18"/>
<text text-anchor="middle" x="251.45" y="-85.8" font-family="Times,serif" font-size="14.00">Event</text>
</g>
<!-- Event&#45;&gt;Comment -->
<g id="edge1" class="edge"><title>Event&#45;&gt;Comment</title>
<path fill="none" stroke="#01d36f" d="M251.45,-63.6398C251.45,-58.0629 251.45,-52.1319 251.45,-46.4761"/>
<ellipse fill="none" stroke="#01d36f" cx="251.45" cy="-67.6966" rx="4" ry="4"/>
<polygon fill="#01d36f" stroke="#01d36f" points="251.45,-46.1043 255.95,-36.1043 251.45,-41.1043 251.45,-36.1043 251.45,-36.1043 251.45,-36.1043 251.45,-41.1043 246.95,-36.1044 251.45,-46.1043 251.45,-46.1043"/>
</g>
<!-- User -->
<g id="node4" class="node"><title>User</title>
<ellipse fill="none" stroke="black" cx="251.45" cy="-180.5" rx="27" ry="18"/>
<text text-anchor="middle" x="251.45" y="-176.3" font-family="Times,serif" font-size="14.00">User</text>
</g>
<!-- User&#45;&gt;Event -->
<g id="edge2" class="edge"><title>User&#45;&gt;Event</title>
<path fill="none" stroke="#c0c135" d="M251.45,-154.189C251.45,-142.971 251.45,-129.752 251.45,-118.311"/>
<ellipse fill="none" stroke="#c0c135" cx="251.45" cy="-158.436" rx="4" ry="4"/>
<polygon fill="#c0c135" stroke="#c0c135" points="251.45,-118.011 255.95,-108.011 251.45,-113.011 251.45,-108.011 251.45,-108.011 251.45,-108.011 251.45,-113.011 246.95,-108.011 251.45,-118.011 251.45,-118.011"/>
</g>
</g>
</svg>
